Electric_Piano/simulation/qsim/music.msim.vcd
$comment
	File created using the following command:
		vcd file music.msim.vcd -direction
$end
$date
	Wed May 31 12:38:29 2023
$end
$version
	ModelSim Version 10.5b
$end
$timescale
	1ps
$end

$scope module mux2_1_vlg_vec_tst $end
$var reg 4 ! a [3:0] $end
$var reg 4 " b [3:0] $end
$var reg 1 # s $end
$var wire 1 $ y [3] $end
$var wire 1 % y [2] $end
$var wire 1 & y [1] $end
$var wire 1 ' y [0] $end

$scope module i1 $end
$var wire 1 ( gnd $end
$var wire 1 ) vcc $end
$var wire 1 * unknown $end
$var tri1 1 + devclrn $end
$var tri1 1 , devpor $end
$var tri1 1 - devoe $end
$var wire 1 . ~QUARTUS_CREATED_GND~I_combout $end
$var wire 1 / ~QUARTUS_CREATED_UNVM~~busy $end
$var wire 1 0 y[0]~output_o $end
$var wire 1 1 y[1]~output_o $end
$var wire 1 2 y[2]~output_o $end
$var wire 1 3 y[3]~output_o $end
$var wire 1 4 a[0]~input_o $end
$var wire 1 5 s~input_o $end
$var wire 1 6 b[0]~input_o $end
$var wire 1 7 y~0_combout $end
$var wire 1 8 b[1]~input_o $end
$var wire 1 9 a[1]~input_o $end
$var wire 1 : y~1_combout $end
$var wire 1 ; b[2]~input_o $end
$var wire 1 < a[2]~input_o $end
$var wire 1 = y~2_combout $end
$var wire 1 > a[3]~input_o $end
$var wire 1 ? b[3]~input_o $end
$var wire 1 @ y~3_combout $end
$upscope $end
$upscope $end
$enddefinitions $end
#0
$dumpvars
b100 !
b1101 "
0#
0'
0&
1%
0$
0(
1)
x*
1+
1,
1-
0.
z/
00
01
12
03
04
05
16
07
08
09
0:
1;
1<
1=
0>
1?
0@
$end
#30000
b1100 !
b1000 !
b1010 !
b101 "
b1 "
b11 "
b10 "
1#
15
1>
0<
19
0?
0;
18
06
0=
1:
11
02
0%
1&
#60000
b1011 !
b1111 !
b1101 !
0#
05
1<
09
14
1@
1=
0:
17
10
01
12
13
1$
1%
0&
1'
#90000
b1010 "
b1110 "
b1100 "
b1101 "
b1100 !
1?
1;
08
16
04
07
00
0'
#120000
b1000 !
b1010 !
1#
b1001 "
b1000 "
0<
19
0;
06
15
0=
02
0%
#150000
b10 !
b0 "
b10 "
b0 !
b11 "
0>
09
0?
18
16
0@
1:
17
10
11
03
0$
1&
1'
#180000
b1 !
b101 !
0#
b1101 !
b1 "
1>
1<
14
08
05
1@
1=
0:
01
12
13
1$
1%
0&
#210000
b0 "
b1100 !
06
04
07
00
0'
#240000
b1000 !
1#
b0 !
15
0>
0<
0@
0=
02
03
0$
0%
#270000
b1000 "
b10 !
b110 !
1?
1<
19
1@
13
1$
#300000
b111 !
0#
b11 !
05
0<
14
0@
1:
17
10
11
03
0$
1&
1'
#330000
b1011 !
b1111 !
1>
1<
1@
1=
12
13
1$
1%
#360000
b1010 "
b1011 "
1#
15
18
16
0=
02
0%
#390000
b1111 "
b111 "
b1110 !
b110 !
b10 !
b101 "
0?
1;
08
0>
0<
04
0@
1=
0:
01
12
03
0$
1%
0&
#420000
b11 !
b1011 !
b1111 !
1>
1<
14
#450000
b1101 !
b100 "
0#
b0 "
b10 "
b101 !
b1 !
05
0>
0<
09
0;
18
06
0=
02
0%
#480000
b110 "
b101 !
1;
1<
1=
12
1%
#510000
b1110 "
b100 !
b110 !
1#
b1100 "
b1110 !
b1010 !
15
1?
08
1>
0<
19
04
1@
07
00
13
1$
0'
#540000
b100 "
b110 "
b1110 !
0?
18
1<
0@
1:
11
03
0$
1&
#570000
b1111 !
0#
b111 !
b1110 "
b1100 "
0>
14
1?
08
05
17
10
1'
#600000
b1101 "
b1001 "
b101 !
b100 !
1#
b1 "
15
0?
0;
16
09
04
0=
0:
01
02
0%
0&
#630000
b1100 !
b0 "
b100 "
b1101 !
1>
14
1;
06
07
1=
12
00
0'
1%
#660000
b110 "
b1111 !
b1110 "
b111 !
b1111 "
b1011 "
b110 !
1?
0;
18
16
0>
19
04
1@
0=
1:
17
10
11
02
13
1$
0%
1&
1'
#690000
b10 !
b1111 "
b11 !
0<
14
1;
1=
12
1%
#720000
b1 !
b111 "
b1001 !
b1101 !
b1100 !
1>
1<
09
04
0?
0@
03
0$
#750000
0#
b101 "
b100 "
b1110 !
08
06
19
05
07
1@
13
00
0'
1$
#780000
b0 "
b110 !
b111 !
b10 "
b11 "
b101 !
0;
18
16
0>
09
14
0:
17
0@
03
10
01
0&
1'
0$
#810000
b1 !
b1001 !
b1 "
b1011 !
1>
0<
19
08
1@
0=
1:
11
02
13
1$
0%
1&
#840000
b1001 "
b1000 "
b1001 !
1?
06
09
0:
01
0&
#870000
1#
b1000 !
b1010 "
b10 "
b11 "
b1010 !
19
04
0?
18
16
15
1:
0@
03
11
1&
0$
#900000
b10 !
b1 "
b1001 "
b1000 "
0>
1?
08
06
1@
0:
07
00
01
13
1$
0&
0'
#930000
b1100 "
0#
b11 !
b1011 !
b100 "
b101 "
0?
1;
16
1>
14
05
17
1:
11
10
1'
1&
#960000
b111 "
1#
b11 !
b110 "
18
06
0>
15
07
0@
1=
12
03
00
0'
0$
1%
#990000
b10 !
b100 "
0#
05
04
08
0=
02
0%
